<?xml version="1.0"?>
<svg version="1.1" xmlns="http://www.w3.org/2000/svg" xmlns:xlink="http://www.w3.org/1999/xlink" width="1500" height="300">
  <path id="Y" d="M0,150 L0,300 L150,300 L300,300 L300,150 L300,0 L150,0 L0,0 L0,150 M131.5,111.7 C141.4,132.2 149.7,148.9 150,149 C150.3,149 158.9,132.1 169.3,111.5 L188,74 L199,74 C205.7,74 210,74.4 210,75 C210,75.6 198.8,97.1 185,122.9 L160,169.9 L160,200.4 L160,231 L149.5,231 L139,231 L139,200 L139,169 L114.5,123.1 C101,97.8 89.7,76.4 89.4,75.6 C88.8,74.1 90.1,74 101.1,74.2 L113.4,74.5 L131.5,111.7 Z" style="fill:#fc6520;"/>

  <path id="C" d="M444,68.5 C425.1,73.8 411.8,85.3 402.4,104.5 C396.2,117.2 393.9,126.8 393.3,143.1 C392.7,157.8 394.4,172 398,182.5 C405,202.7 419.1,217.4 438,224.1 C443.5,226.1 446.5,226.4 457.5,226.5 C472.4,226.5 481,224.5 493.1,218.5 L500.1,214.9 L495.4,208.9 C492.8,205.6 490.4,203.1 490.1,203.3 C489.8,203.4 486.1,205.3 481.9,207.3 C463.3,216.5 439.9,212.7 427.2,198.4 C421.2,191.7 417.5,184.4 414.8,173.8 C413,166.5 412.8,163.5 413.3,145.6 C413.8,123.1 414.9,117.2 420.7,105.3 C427,92.3 437.1,84.4 450.6,81.9 C461,80 474.7,82.6 483.7,88.3 L487.7,90.8 L491.9,85.5 C494.3,82.5 496.2,79.8 496.2,79.3 C496.2,77.9 487.1,72.8 479.7,70.3 C470.4,67.1 452.4,66.2 444,68.5 Z" style="fill:#fc6520;"/>

  <path id="o1" d="M551.5,110.7 C539.5,115 530.6,123 525,134.3 C520.2,144.3 518.6,152.6 518.7,168.5 C518.8,190.2 522.9,202.8 533.8,214.2 C551.2,232.5 583.8,232.1 600.9,213.4 C611.5,201.8 615.5,187.9 614.8,165.1 C614.4,152.8 613.9,149.3 611.6,142.7 C606.7,128.2 598.4,118.4 586.2,112.7 C580.2,109.9 578.5,109.6 568,109.3 C558.9,109 555.5,109.3 551.5,110.7 M579.1,125.8 C590.9,131.9 595.2,143.6 595.2,170 C595.3,188.6 593.7,196 588,203.9 C579.3,215.9 556.5,216.3 546.4,204.8 C540,197.6 536.3,178.8 537.3,159.5 C538.2,143.6 540.8,135.4 546.7,129.8 C554.4,122.4 569.2,120.6 579.1,125.8 Z" style="fill:#fc6520;"/>

  <path id="m" d="M653.2,110.9 C649.2,111.9 645.8,112.9 645.6,113.1 C645.3,113.3 645.9,116 646.8,119 C648.1,123.6 648.4,132.7 648.8,174.7 L649.2,225 L657.1,225 L665,225 L665,182.6 L665,140.2 L669.8,136.1 C672.4,133.8 677.6,130.4 681.4,128.5 C689.7,124.3 697.4,123.7 702.8,127 C708.9,130.8 709,131.3 709,180.5 L709,225 L718,225 L727,225 L727,183.1 L727,141.2 L733.8,135.5 C743.6,127.3 749.1,124.6 756.7,124.6 C763.8,124.5 767.4,126.5 770.2,132.1 C771.8,135.2 772,139.6 772,180.2 L772,225 L781,225 L790.1,225 L789.8,178.2 C789.4,124.9 789.5,125.4 781,116.9 C768.9,104.8 750,106.7 731.1,122.2 C727.2,125.3 724.5,126.9 724.2,126.2 C724,125.5 722.4,122.8 720.7,120.2 C718.3,116.8 715.8,114.7 711,112.2 C705,109 704,108.8 697.3,109.2 C688.8,109.8 680,113.6 671.4,120.6 C668.5,123 665.8,125 665.5,125 C665.2,125 665,124 665,122.8 C665,119.9 661.9,109 661.1,109.1 C660.8,109.1 657.2,110 653.2,110.9 Z" style="fill:#fc6520;"/>

  <path id="b" d="M832.3,60.4 C828.8,61.1 825.8,61.9 825.6,62.1 C825.3,62.4 825.6,64.3 826.2,66.5 C827,69.2 827.5,92.1 827.7,137.4 C828.1,199.6 827.7,214.8 825.4,222.7 C824.8,225 824.9,225 833.4,225 L842,225 L843.7,219 L845.3,213.1 L849.3,216.6 C863,229.1 885.1,230.5 899.2,219.9 C916.4,207 924.4,179.4 919.5,150.4 C913,112.5 878.7,97.3 850.4,119.8 L845.2,123.9 L844.7,95.2 C844.4,79.4 843.8,64.9 843.3,63 C842.3,58.9 841.2,58.6 832.3,60.4 M886.5,127.7 C898.1,133.8 903,147.7 901.6,171 C899.9,200.9 890.3,213.2 870,211.8 C862.4,211.2 854.3,207.8 848.7,202.7 L845,199.2 L845,169.3 L845,139.4 L849.3,135.4 C854.4,130.5 857.2,128.7 863.1,126.6 C869.2,124.4 881.1,124.9 886.5,127.7 Z" style="fill:#fc6520;"/>

  <path id="i" d="M967.5,109.5 C967,109.7 963.2,110.4 959.3,111 L952,112.2 L952,168.6 L952,225 L961,225 L970,225 L970,167 C970,135.1 969.7,109 969.3,109.1 C968.8,109.1 968.1,109.3 967.5,109.5 Z" style="fill:#fc6520;"/>

  <path id="i-dot" d="M954.5,64.8 C945.1,70.7 945.7,84.5 955.6,88.6 C962.8,91.6 969.9,88.8 973.4,81.7 C975.8,76.7 974.9,71.9 970.6,67.3 C967.9,64.3 966.5,63.7 962.4,63.3 C958.8,63 956.7,63.4 954.5,64.8 Z" style="fill:#fc6520;"/>

  <path id="n" d="M1013,111.3 C1008.9,112.4 1005.4,113.4 1005.2,113.6 C1005,113.7 1005.7,116.4 1006.6,119.6 C1008.1,124.7 1008.4,132.1 1008.7,175.2 L1009.2,225 L1017.1,225 L1025,225 L1025,182.5 L1025,140 L1030.3,135.9 C1033.1,133.6 1038.8,130.1 1042.9,128.2 C1049.1,125.2 1051.5,124.6 1057.1,124.6 C1064.4,124.5 1067.3,125.9 1071.4,131.4 C1073.4,134.1 1073.5,135.5 1073.8,179.6 L1074.1,225 L1083.1,225 L1092.1,225 L1091.8,178.7 C1091.4,127.8 1091.4,128.1 1085,120 C1081.2,115.2 1071.8,110.4 1064.6,109.5 C1054.8,108.3 1042.2,112.9 1031.6,121.5 C1028.5,124 1025.8,126 1025.5,126 C1025.2,126 1025,125 1025,123.7 C1025,121 1022.2,110.8 1021.2,109.9 C1020.8,109.5 1017.1,110.2 1013,111.3 Z" style="fill:#fc6520;"/>

  <path id="1" d="M1157,110.5 C1148.9,112.3 1143.3,114.4 1135,118.6 C1124.9,123.8 1125.2,123 1129.9,129.8 L1134,135.9 L1138.4,133 C1147.3,127 1159.9,123 1170.3,123 C1181.5,123 1187.6,127.8 1189,138.1 C1189.5,141.6 1190,146.8 1190,149.6 L1190,154.7 L1176.8,155.3 C1155.5,156.2 1141.1,161.1 1131.7,170.4 C1114.2,187.9 1120.1,218.9 1142.2,225.5 C1158.5,230.3 1173.6,227.2 1185.5,216.8 C1188.2,214.4 1190.5,213 1190.7,213.5 C1191.9,217 1196,222.7 1199,225.1 C1204.5,229.5 1205.6,229.2 1210.3,222.7 L1214.4,216.9 L1211.2,214.4 C1206.1,210.4 1205.8,207.5 1206.2,168.6 C1206.5,137 1206.3,133 1204.7,128.4 C1202.3,121.5 1197.1,115.7 1190.3,112.4 C1185.5,110 1183.3,109.6 1174.1,109.3 C1167.4,109.1 1161.1,109.6 1157,110.5 M1186.7,167 L1189.2,167 L1188.9,182.3 C1188.5,197.3 1188.4,197.8 1185.7,201.8 C1182,207 1173.9,212.6 1167.7,214.1 C1161.5,215.6 1152.9,214.7 1148.6,212 C1146.6,210.8 1144.2,208 1143,205.4 C1141.1,201.5 1140.8,199.6 1141.2,191.9 C1141.6,184 1141.9,182.5 1144.6,178.8 C1147.8,174.2 1153,170.7 1159.5,168.8 C1164.4,167.4 1177.4,166.1 1181.4,166.6 C1183,166.8 1185.4,167 1186.7,167 Z" style="fill:#fc6520;"/>

  <path id="t" d="M1257.7,81 C1253.4,82 1249.6,83.1 1249.2,83.4 C1248.9,83.8 1248.1,90.4 1247.6,98 L1246.7,112 L1239.3,112 L1232,112 L1232,118.5 L1232,125 L1239.5,125 L1247,125 L1247,166.8 C1247,212.7 1247.4,216.2 1252.7,221.2 C1257.4,225.6 1262,227.3 1270.3,227.8 C1278.1,228.3 1290.3,226 1291.6,223.8 C1291.9,223.3 1291.6,220.7 1291,218 C1289.9,213.4 1289.7,213.2 1287.3,214.1 C1284,215.3 1275,215.3 1271.2,213.9 C1269.5,213.3 1267.3,211.6 1266.3,210.2 C1264.6,207.7 1264.5,204.2 1264.2,166.2 L1263.9,125 L1275.8,125 L1287.6,125 L1290.2,118.7 L1292.8,112.5 L1278.7,112.2 L1264.7,111.9 L1265.3,98.7 C1265.7,91.4 1266.3,84 1266.6,82.2 C1267,80.4 1266.9,79 1266.4,79.1 C1265.9,79.1 1262,80 1257.7,81 Z" style="fill:#fc6520;"/>

  <path id="o2" d="M1343.3,111.1 C1329.3,115.5 1318.3,128.3 1313.4,146.1 C1310.8,155.2 1310.8,180.8 1313.4,190 C1319.3,211.6 1332.4,224.2 1352.1,227.1 C1367.7,229.4 1384.2,224.1 1393.6,213.7 C1399.7,206.9 1404.6,196.5 1406.6,185.9 C1408.6,175.8 1408,155.8 1405.5,146.5 C1400.7,128.3 1389.6,115.8 1373.9,110.9 C1365.7,108.3 1351.7,108.4 1343.3,111.1 M1368.2,124.2 C1373.1,125.6 1380.5,132 1383,137 C1386.7,144.3 1388.2,155.8 1387.8,173.3 C1387.3,191 1385.8,197.4 1380.5,204.4 C1372.1,215.4 1350.2,216.1 1339.8,205.6 C1333,198.7 1330.6,188.2 1330.5,166 C1330.5,150.5 1330.8,147.7 1332.8,141.2 C1335.4,132.8 1340.4,127.1 1347.3,124.6 C1352.4,122.8 1362.9,122.6 1368.2,124.2 Z" style="fill:#fc6520;"/>

  <path id="r" d="M1446,111.3 C1441.9,112.4 1438.4,113.4 1438.2,113.5 C1438.1,113.6 1438.6,116.6 1439.5,120.1 C1440.7,125.3 1441,135.4 1441,175.7 L1441,225 L1450,225 L1459,225 L1459,185.5 C1459,154.5 1459.3,145.2 1460.4,142.7 C1462.2,138.3 1470.9,130.6 1475.8,129.2 C1477.9,128.5 1481.9,128 1484.6,128 L1489.5,128 L1492.8,119.1 C1494.5,114.3 1496,110 1496,109.6 C1496,109.3 1493.1,109 1489.6,109 C1481.1,109 1471.4,113.7 1464.1,121.5 C1461.2,124.5 1458.7,127 1458.4,127 C1458.2,127 1458,125.1 1458,122.7 C1458,118.3 1455.4,108.9 1454.2,109.1 C1453.8,109.1 1450.1,110.1 1446,111.3 Z" style="fill:#fc6520;"/>
</svg>
